{
  "_version": "1.6.0",
  "travellerCategoryTable" : {
    "metadata": {
      "serial": 5
    },
    "categories": {
      "a": "Adult",
      "b": "Senior",
      "c": "Child",
      "d": "Dog",
      "e": "Student",
      "f": "Family",
      "g": "Bike",
      "h": "Youth",
      "i": "Young adult",
      "ax": "Adult co-traveller",
      "hx": "Youth co-traveller"
    }
  }
}
